65536, GPU, 98
131072, GPU, 79
262144, GPU, 124
524288, GPU, 219
1048576, GPU, 439
2097152, GPU, 871
4194304, GPU, 1826
8388608, GPU, 3881
16777216, GPU, 8526
33554432, GPU, 18144
65536, CPU, 7
131072, CPU, 13
262144, CPU, 32
524288, CPU, 69
1048576, CPU, 139
2097152, CPU, 294
4194304, CPU, 634
8388608, CPU, 1272
16777216, CPU, 2589
33554432, CPU, 4993
65536, CPU-MP, 3
131072, CPU-MP, 7
262144, CPU-MP, 20
524288, CPU-MP, 41
1048576, CPU-MP, 88
2097152, CPU-MP, 195
4194304, CPU-MP, 413
8388608, CPU-MP, 860
16777216, CPU-MP, 1717
33554432, CPU-MP, 3524
65536, CPU-STL, 5
131072, CPU-STL, 15
262144, CPU-STL, 24
524288, CPU-STL, 56
1048576, CPU-STL, 117
2097152, CPU-STL, 245
4194304, CPU-STL, 510
8388608, CPU-STL, 1105
16777216, CPU-STL, 2237
33554432, CPU-STL, 4568
65536, HYBRID, 18
131072, HYBRID, 37
262144, HYBRID, 78
524288, HYBRID, 163
1048576, HYBRID, 339
2097152, HYBRID, 671
4194304, HYBRID, 1386
8388608, HYBRID, 2809
16777216, HYBRID, 5718
33554432, HYBRID, 11395
